{
  "today": "2018-05-07",
  "period_start": "2018-04-10",
  "employees": [
    {
      "workload": [
        {
          "workload_in_minutes": 300,
          "minimum_rest_interval_in_minutes": 15,
          "days": [
            "mon",
            "tue",
            "wed",
            "thu",
            "fri"
          ]
        }
      ],
      "pis_number": "59417640765",
      "name": "Goddard Lewis Son"
    }
  ]
}
